3|Боря|25|false
5|Саша|30|false
15|Коля|55|true
6|Маша|20|true
7|Даша|30|false
8|Валя|30|true
9|Галя|25|false
11|Вася|25|false
12|Нина|25|false
13|Андрей|20|true
14|Денис|25|false
15|Вика|25|false
2|Тимур|22|true
4|Тимур|22|true
1|Тимур|22|false
10|Тимур|44|true
