import java.util.Scanner;

public class Main {
    public static void main(String[] args) {
        Scanner scanner = new Scanner(System.in);
        int a = scanner.nextInt();
        int count = 0, num = 0, min = 0;
        while (a != -1 && a > -100 && a < 100){

            if(a == a+1){
                count++;}
        if (count > min) {
            min = count;
            num = a+1 ;
        }
        if (count == min) {
            min = count;
            num = a ;
            count = 0;
        }
            a =scanner.nextInt();}

        System.out.println("Число, повторющееся меньше всего раз: "+num);
        System.out.println("Количество повторов числа: "+ (min + 2)+" "+ "раз");
    }

}
